{
  "type": "service_account",
  "project_id": "push-notify-3b288",
  "private_key_id": "d1a169103e3d06e4584c8da0d0dccad940285023",
  "private_key": "-----BEGIN PRIVATE KEY-----\nMIIEvgIBADANBgkqhkiG9w0BAQEFAASCBKgwggSkAgEAAoIBAQDeD6FJ/YAUPsSu\nGbtBGbD+MvgM2RLzT8cMknBn7BpWgDrZ2t1VJciGSKd7yF+cHXtt85Cb0Len+uVt\nZ/NgidMCknwn+BP9e9KkfXU45jldqCT5kfL9aNw1Xff9zglgZ9yte/N/zVCHXAOK\nQJq3NtU97sR5/kulSTBYegcQTWpB8geXp83fA9REBAF1ZUH5q5PHFN/Bpi4b/ICy\n7KzcOdqvqnvaW4oy2KBIlZ+0XEi8UG9+XoznZ03cdGEbzo3UCpu+0f4knx5jpT9y\n/z9DqOfquf49Cyg0PTwulH3rUOYFMQVOQmzyfUAcYWA72wbtd9qWDqvFFTLLEkBN\npqrqxVc7AgMBAAECggEACSqGZj8RvSqYhI88JlD6XoozQjFO3otzR4n4tdfbGale\n97fyQ7eBi9/bE5L1aPfjYAOzyAEl85S5r606Y8iMoaImTQgPQZSNrb7rMP2soVJC\nStyPz47Q6144asBi4ExC1OGbu+TGGpaqI4szJIKEHtnvDKutUUjjtzAIs2jFDN+6\n/j12WdiLoICAc1I1sDwY6WJqRtiVbDV+HtY9jg1WE47vP9JzvGr20D5qUkOsgWyD\nuqamEkWUsdxxjd6FBQPaNRMGF6O0y2Iefl5ZpH3MF2g3R1dLGkxJ1QXQCibHYfw9\ny7t0ZFxjrBuzP9+7YLAm48W94nOthn75CKirKOHYsQKBgQD5++Wj7MXSqa7o5qZh\ntT33dsp1zXW1Wz4h3PHo1mxkL9gVZfmJWg2vCpmST5keIeB0V2WGvkjHEMqJWoW9\nMMCAClVZrhkYqwo9WXRmJ8xicVYg3J37172ehz+Fg1KuhXzAr37x2wphA+RHU/WE\nW3GP+vVRagE1PHAnHFb+RxcCvQKBgQDjZ7SOeUE8XX2L3+psz7WwFYfho6uVB6Gl\njU4xzn2eYy9d1AcfRijaTW0HKMQKNfRlODxfN6Zdg0tXXaX2fz8g9GE9cKM0LV8P\nh4BS6np2+d89ErxbkJqhba1yJRrgtItyAikuHbI7+k2wvJ0EQMLDg/yd+xYcxPsY\n9mb4nXQdVwKBgDJTvjW0U1dIBgipdtGw9Vq+tZ/lz07FocqberBPit7Yqv4T25sF\nYD/fOG+2SrNASrnhZnUsFebNwJjKeqZODFM6wVgerrrCpHsZaU+vr3waKSbQg5XS\nJ0ClJeqxN5IfGbCJJFt4p6xEZk7d3k3ZQxGjioPrfXbERif5kqH6me1ZAoGBAMGv\nU4bB2gFbM5JOHfGdnAck334clAiz3kcOKpqbYDzmB7Ln40UM0cDVj1Y4r3hu6gDI\nPAtxb55YNHRuC+v+Bzu/SY81/5tyRXQJmg+FLNdnDW+MJKfsavexXbhJyDG5NMfe\n9UoU+vjAwSkWDLpRmlFCeofoErZgQ+nH/H4mRX6zAoGBAPkWPQIvtqSZlXX67Hxr\nRxgkhygw2YbhNMyMAXUlS9BszZ5K4mYI4ZzP9HZ+7DITxi+zf7IFbIIjn/JJdrrH\nE+GBHO0+FE+N2onJYC6x28lSYfk66GszI/Pz/C20aO5+DQzhMvArGARfw5FE74Bs\nxfPQtsrQsPU+TacJAbb2kX4y\n-----END PRIVATE KEY-----\n",
  "client_email": "firebase-adminsdk-q2a12@push-notify-3b288.iam.gserviceaccount.com",
  "client_id": "107183857093538979191",
  "auth_uri": "https://accounts.google.com/o/oauth2/auth",
  "token_uri": "https://oauth2.googleapis.com/token",
  "auth_provider_x509_cert_url": "https://www.googleapis.com/oauth2/v1/certs",
  "client_x509_cert_url": "https://www.googleapis.com/robot/v1/metadata/x509/firebase-adminsdk-q2a12%40push-notify-3b288.iam.gserviceaccount.com"
}
